[
  { "key": 415, "name": "Acadian" },
  { "key": 456, "name": "Acura" },
  { "key": 452, "name": "Adler" },
  { "key": 475, "name": "Aixam" },
  { "key": 339, "name": "Aleko" },
  { "key": 1, "name": "Alfa Romeo" },
  { "key": 89, "name": "AMC" },
  { "key": 491, "name": "Ariel" },
  { "key": 435, "name": "Armstrong Siddeley" },
  { "key": 2, "name": "Aston Martin" },
  { "key": 431, "name": "Auburn" },
  { "key": 4, "name": "Audi" },
  { "key": 5, "name": "Austin" },
  { "key": 502, "name": "Avia" },
  { "key": 461, "name": "Baci" },
  { "key": 6, "name": "Bedford" },
  { "key": 7, "name": "Bentley" },
  { "key": 441, "name": "Bitter" },
  { "key": 8, "name": "BMW" },
  { "key": 208, "name": "BMW Alpina" },
  { "key": 323, "name": "Borgward" },
  { "key": 432, "name": "Bricklin" },
  { "key": 317, "name": "Bugatti" },
  { "key": 9, "name": "Buick" },
  { "key": 10, "name": "Cadillac" },
  { "key": 424, "name": "Carado" },
  { "key": 468, "name": "Carlsson" },
  { "key": 459, "name": "Caterham" },
  { "key": 428, "name": "Chandler" },
  { "key": 451, "name": "Chatenet" },
  { "key": 469, "name": "Checker" },
  { "key": 11, "name": "Chevrolet" },
  { "key": 12, "name": "Chrysler" },
  { "key": 496, "name": "Cimbria" },
  { "key": 13, "name": "Citroen" },
  { "key": 480, "name": "CityFort" },
  { "key": 14, "name": "Cobra" },
  { "key": 427, "name": "Commer" },
  { "key": 493, "name": "Crosley" },
  { "key": 436, "name": "Dacia" },
  { "key": 96, "name": "Daewoo" },
  { "key": 438, "name": "Daf" },
  { "key": 15, "name": "Daihatsu" },
  { "key": 16, "name": "Daimler" },
  { "key": 17, "name": "Datsun" },
  { "key": 337, "name": "Datsun-Nissan" },
  { "key": 309, "name": "De Lorean" },
  { "key": 281, "name": "De Tomaso" },
  { "key": 18, "name": "DeSoto" },
  { "key": 487, "name": "DFSK" },
  { "key": 443, "name": "Diamante" },
  { "key": 194, "name": "DKW" },
  { "key": 19, "name": "Dodge" },
  { "key": 404, "name": "Donau" },
  { "key": 489, "name": "DS" },
  { "key": 232, "name": "Duna" },
  { "key": 501, "name": "Durant" },
  { "key": 20, "name": "Eagle" },
  { "key": 184, "name": "Edsel" },
  { "key": 477, "name": "Elcat" },
  { "key": 430, "name": "EMW" },
  { "key": 453, "name": "Essex" },
  { "key": 476, "name": "Eunos" },
  { "key": 494, "name": "Fargo" },
  { "key": 21, "name": "Ferrari" },
  { "key": 22, "name": "Fiat" },
  { "key": 478, "name": "Fiat-Abarth" },
  { "key": 466, "name": "Fisker" },
  { "key": 23, "name": "Ford" },
  { "key": 470, "name": "Frazer" },
  { "key": 25, "name": "FSO" },
  { "key": 483, "name": "Fuso" },
  { "key": 26, "name": "GAZ" },
  { "key": 278, "name": "Geo" },
  { "key": 497, "name": "Ginetta" },
  { "key": 27, "name": "GMC" },
  { "key": 378, "name": "Goggomobil" },
  { "key": 499, "name": "Goliath Express" },
  { "key": 319, "name": "Hanomag-Hensc" },
  { "key": 492, "name": "Hanomag-Matador" },
  { "key": 417, "name": "Hansa" },
  { "key": 458, "name": "Hartge" },
  { "key": 463, "name": "Heinkel" },
  { "key": 419, "name": "Henry J" },
  { "key": 328, "name": "Hillman" },
  { "key": 29, "name": "Honda" },
  { "key": 448, "name": "Hudson" },
  { "key": 294, "name": "Humber" },
  { "key": 91, "name": "Hummer" },
  { "key": 442, "name": "Hupmobile" },
  { "key": 30, "name": "Hyundai" },
  { "key": 272, "name": "Ifa" },
  { "key": 331, "name": "Infiniti" },
  { "key": 97, "name": "International" },
  { "key": 347, "name": "Isetta" },
  { "key": 31, "name": "Isuzu" },
  { "key": 283, "name": "Iveco" },
  { "key": 32, "name": "Jaguar" },
  { "key": 383, "name": "Jalta" },
  { "key": 33, "name": "Jeep" },
  { "key": 400, "name": "Jensen" },
  { "key": 481, "name": "Jowett" },
  { "key": 282, "name": "Kaiser-Frazer" },
  { "key": 230, "name": "KIA" },
  { "key": 449, "name": "KTM" },
  { "key": 34, "name": "Lada" },
  { "key": 35, "name": "Lamborghini" },
  { "key": 348, "name": "Lanchester" },
  { "key": 36, "name": "Lancia" },
  { "key": 37, "name": "Land Rover" },
  { "key": 38, "name": "Lexus" },
  { "key": 341, "name": "Leyland" },
  { "key": 39, "name": "Lincoln" },
  { "key": 413, "name": "Lloyd" },
  { "key": 327, "name": "London taxi" },
  { "key": 40, "name": "Lotus" },
  { "key": 474, "name": "LuAZ" },
  { "key": 88, "name": "MAN" },
  { "key": 484, "name": "Marcos" },
  { "key": 41, "name": "Maserati" },
  { "key": 472, "name": "Matra" },
  { "key": 336, "name": "Maybach" },
  { "key": 44, "name": "Mazda" },
  { "key": 486, "name": "McLaren" },
  { "key": 45, "name": "Mercedes-Benz" },
  { "key": 46, "name": "Mercury" },
  { "key": 47, "name": "MG" },
  { "key": 335, "name": "MG Rover" },
  { "key": 498, "name": "MIA Electric" },
  { "key": 48, "name": "Mini" },
  { "key": 49, "name": "Mitsubishi" },
  { "key": 467, "name": "Mitsubishi Fuso" },
  { "key": 425, "name": "Mitsuoka" },
  { "key": 462, "name": "Morgan" },
  { "key": 53, "name": "Morris" },
  { "key": 54, "name": "Moskvitsh" },
  { "key": 204, "name": "Muu merkki" },
  { "key": 434, "name": "Nash" },
  { "key": 293, "name": "Neckar" },
  { "key": 55, "name": "Nissan" },
  { "key": 162, "name": "NSU" },
  { "key": 56, "name": "Oldsmobile" },
  { "key": 57, "name": "Opel" },
  { "key": 178, "name": "Packard" },
  { "key": 312, "name": "Panhard" },
  { "key": 189, "name": "Peerless" },
  { "key": 58, "name": "Peugeot" },
  { "key": 471, "name": "PGO" },
  { "key": 439, "name": "Pinzgauer" },
  { "key": 59, "name": "Plymouth" },
  { "key": 444, "name": "Pmc" },
  { "key": 60, "name": "Pontiac" },
  { "key": 61, "name": "Porsche" },
  { "key": 488, "name": "Radical" },
  { "key": 62, "name": "Rambler" },
  { "key": 403, "name": "Reliant" },
  { "key": 64, "name": "Renault" },
  { "key": 500, "name": "Reo" },
  { "key": 490, "name": "Reynard" },
  { "key": 426, "name": "Riley" },
  { "key": 464, "name": "Robin Hood Engineering" },
  { "key": 65, "name": "Rolls-Royce" },
  { "key": 66, "name": "Rover" },
  { "key": 440, "name": "Rugby" },
  { "key": 67, "name": "Saab" },
  { "key": 395, "name": "Saturn" },
  { "key": 234, "name": "Scania" },
  { "key": 460, "name": "Scion" },
  { "key": 69, "name": "Seat" },
  { "key": 70, "name": "Simca" },
  { "key": 71, "name": "Singer" },
  { "key": 72, "name": "Skoda" },
  { "key": 73, "name": "Smart" },
  { "key": 445, "name": "Smiley" },
  { "key": 74, "name": "SsangYong" },
  { "key": 362, "name": "Standard" },
  { "key": 433, "name": "Star" },
  { "key": 195, "name": "Steyr-Puch" },
  { "key": 275, "name": "Studebaker" },
  { "key": 75, "name": "Subaru" },
  { "key": 76, "name": "Sunbeam" },
  { "key": 77, "name": "Suzuki" },
  { "key": 78, "name": "Talbot" },
  { "key": 333, "name": "Tavria" },
  { "key": 454, "name": "Tazzari" },
  { "key": 473, "name": "Teijo" },
  { "key": 479, "name": "Tempo" },
  { "key": 437, "name": "Tesla" },
  { "key": 450, "name": "Think" },
  { "key": 79, "name": "Toyota" },
  { "key": 303, "name": "Trabant" },
  { "key": 80, "name": "Triumph" },
  { "key": 298, "name": "TruckMasters" },
  { "key": 340, "name": "TVR" },
  { "key": 334, "name": "UAZ" },
  { "key": 485, "name": "Vanden Plas" },
  { "key": 81, "name": "Vauxhall" },
  { "key": 482, "name": "Veemax" },
  { "key": 457, "name": "Vidal" },
  { "key": 83, "name": "Volga" },
  { "key": 84, "name": "Volkswagen" },
  { "key": 85, "name": "Volvo" },
  { "key": 86, "name": "Wartburg" },
  { "key": 465, "name": "Westfield" },
  { "key": 406, "name": "Whippet" },
  { "key": 422, "name": "Willys" },
  { "key": 495, "name": "Willys-Overland" },
  { "key": 92, "name": "Wolseley" },
  { "key": 446, "name": "Zastava" },
  { "key": 455, "name": "ZAZ" },
  { "key": 87, "name": "Zephyr" },
  { "key": 376, "name": "Zwickau" }
]
